<?xml version="1.0" encoding="utf-8"?>
<!-- Generator: Adobe Illustrator 19.2.1, SVG Export Plug-In . SVG Version: 6.00 Build 0)  -->
<svg version="1.1" id="Layer_1" xmlns="http://www.w3.org/2000/svg" xmlns:xlink="http://www.w3.org/1999/xlink" x="0px" y="0px"
	 viewBox="0 0 512 512" style="enable-background:new 0 0 512 512;" xml:space="preserve">
<style type="text/css">
	.st0{fill:#337ab7;}
	.st1{fill:#FFFFFF;}
</style>
<circle class="st0" cx="256" cy="256" r="256"/>
<g>
	<g>
		<path class="st1" d="M96.5,280.3v80.3c0,13.5,11,24.5,24.5,24.5h270c13.5,0,24.5-11,24.5-24.5v-81L256,302L96.5,280.3z"/>
		<path class="st1" d="M323.4,172.1v-0.2v-20.5c0-13.5-11-24.5-24.5-24.5h-91c-13.5,0-24.5,11-24.5,24.5v20.5v0.2H121
			c-13.5,0-24.5,11-24.5,24.5v59.9L256,278.2l159.5-22.5v-59.1c0-13.5-11-24.5-24.5-24.5H323.4z M292.1,219.1v29.6h-71.3v-29.6V213
			h71.3V219.1z M299.9,171.9v0.2h-93v-0.2v-8.8c0-7.1,5.7-12.8,12.8-12.8h67.5c7.1,0,12.8,5.7,12.8,12.8L299.9,171.9L299.9,171.9z"
			/>
	</g>
</g>
</svg>
