<?xml version="1.0" encoding="utf-8"?>
<!-- Generator: Adobe Illustrator 19.2.1, SVG Export Plug-In . SVG Version: 6.00 Build 0)  -->
<svg version="1.1" id="Layer_1" xmlns="http://www.w3.org/2000/svg" xmlns:xlink="http://www.w3.org/1999/xlink" x="0px" y="0px"
	 viewBox="0 0 512 512" style="enable-background:new 0 0 512 512;" xml:space="preserve">
<style type="text/css">
	.st0{fill:#337ab7;}
	.st1{fill:#FFFFFF;}
</style>
<circle class="st0" cx="256" cy="256" r="256"/>
<g>
	<g>
		<path class="st1" d="M183.9,253.3l1.1-1.1l1.1,1.1c9.6,9.4,20.2,14.6,29.8,14.6c10.1,0,20.6-4.6,30.2-13.3l0.8-0.7l2.1,1.1
			c1.8,1.7,5,4.2,6.5,4.9l2,1l-0.2,0.2l0.8,0.5c1.8,1.1,3.8,2.2,6,3.4c2.2,1,4.2,1.8,6.2,2.5c0.4,0.1,9.9,3.4,20.8,8.7l1.9,0.6
			c10.3,4.1,14.7,9.9,14.9,10.1c16,25,18.7,79.5,19,85.5c-0.1,8.5-2.4,10.7-3,11.2c-35.9,16.9-90.3,21.3-100.8,22l-0.3,0l-0.3-0.1
			c-0.4-0.1-0.7-0.2-1.2-0.2h0l-0.4,0c-2.9,0.2-5.3,0.3-7.5,0.3h-1.7c-6.5-0.4-65.1-4.4-102.6-21.9c-0.8-0.3-3-3-3.1-10.8
			c0-0.6,1.9-59.4,18.8-85.6c0.8-1.1,5.4-6.7,14.6-10.3c8-2.6,27.9-9.5,38.8-17.8c0.5-0.3,0.9-0.8,1.4-1.3
			C180.3,257,182,255.2,183.9,253.3z M295.9,268l-1.5-0.5c-2.4-1.2-5-2.4-7.7-3.5c3.7-1.8,6.8-3.6,9.1-5.4c0.4-0.2,0.7-0.6,1.1-1
			c0.8-0.9,1.9-2.2,3.2-3.4l0.7-0.7l0.7,0.7c7.2,7,15.1,10.9,22.3,10.9c7.6,0,15.4-3.4,22.6-9.9l0.5-0.4l1.4,0.7
			c1.3,1.3,3.7,3.1,4.8,3.7l1.2,0.6l-0.1,0.2l0.8,0.5c1.4,0.9,2.8,1.7,4.5,2.5c1.7,0.8,3.1,1.4,4.6,1.9c0.3,0.1,7.3,2.5,15.5,6.4
			l1.4,0.5c7.4,3,10.6,7,10.9,7.5c12,18.6,13.9,58.9,14.1,63.4c-0.1,6.2-1.7,7.8-2.1,8.1c-22.5,10.6-54.8,14.5-68.4,15.8
			c-1.2-18.5-5.6-62.1-20.1-84.8l-0.6-0.8C311.7,277.2,305.3,271.8,295.9,268z M287.5,200.7l0.3-0.3c1.1-0.9,1.7-2.2,1.5-3.6
			c-2.7-17-1-24.2-0.3-26c4.7-15.2,19.6-22.2,22.5-23.5c0.6-0.2,1.7-0.6,2.9-0.8l0.4-0.1l2.2-0.1l0,0.2l0.7-0.1c0.5,0,1-0.1,1.3-0.2
			l0.8-0.2c0.5,0,6.3,0.8,14.8,3.5l6,2.2c10.9,3.4,15.9,9.6,16.8,10.9c8.7,10.4,6.4,26,4.2,34.4c-0.2,1-0.1,2.1,0.5,3l0.5,0.7
			c0.6,0.9,1.2,4.3-0.7,11.7c-0.4,2.2-1.2,4-2.3,5.2c-0.5,0.5-0.8,1.2-0.9,1.9c-3,18.1-18.5,38.4-34.8,38.4
			c-13.9,0-29.7-18.7-32.5-38.4c-0.1-0.8-0.4-1.4-0.9-2c-1.2-1.3-1.9-3.1-2.4-5.9C286.6,206.5,286.4,202.3,287.5,200.7z
			 M166.8,181.1l0.4-0.5c1.5-1.1,2.2-2.8,1.9-4.6c-3.7-23.1-1.3-32.7-0.4-35.1c6.4-20.5,26.4-30.1,30.4-31.8c0.8-0.3,2.4-0.8,4-1.1
			l0.4-0.1l3.3-0.2l0,0.2l0.7-0.1c0.7-0.1,1.3-0.2,2.1-0.3l0.8-0.2c0.6,0,8.4,1,20,4.8l8,2.9c14.7,4.6,21.5,13.1,22.8,14.8
			c11.8,14.1,8.7,35.2,5.7,46.6c-0.3,1.3-0.1,2.7,0.6,3.8l0.7,0.9c1.1,1.5,1.5,6.6-0.9,15.9c-0.5,3.1-1.6,5.5-3.2,7.2
			c-0.6,0.7-1,1.5-1.1,2.5c-4,24.5-25,52-47.1,52c-18.8,0-40.2-25.2-44-52c-0.1-1-0.5-1.8-1.2-2.6c-1.6-1.7-2.6-4.3-3.3-8
			C165.5,189.1,165.3,183.4,166.8,181.1z"/>
	</g>
</g>
</svg>
